wave.vcd
$date
	Sat Feb 12 19:02:57 2022
$end
$version
	Icarus Verilog
$end
$timescale
	1ps
$end
$scope module TopSDD $end
$var event 1 ! _ivl_6 $end
$var wire 1 " clk $end
$var wire 1 # oled_pmoden $end
$var wire 1 $ oled_vccen $end
$var wire 1 % rst $end
$var wire 8 & oled_y_data [7:0] $end
$var wire 8 ' oled_x_dc [7:0] $end
$var wire 1 ( oled_valid $end
$var wire 1 ) oled_sck $end
$var wire 1 * oled_rst $end
$var wire 16 + oled_rgb [15:0] $end
$var wire 1 , oled_ready $end
$var wire 1 - oled_mosi $end
$var wire 1 . oled_dc $end
$var wire 1 / oled_cs $end
$var reg 1 0 oled_setpixel_raw8tx $end
$var reg 1 1 oled_strobe $end
$scope module oled_ssd1331_i $end
$var wire 1 " clk $end
$var wire 1 * oled_rst $end
$var wire 1 # pmoden $end
$var wire 1 2 resetn $end
$var wire 1 0 setpixel_raw8tx $end
$var wire 1 ) spi_sck $end
$var wire 1 1 strobe $end
$var wire 1 $ vccen $end
$var wire 8 3 x_dc [7:0] $end
$var wire 8 4 y_data [7:0] $end
$var wire 1 - spi_mosi $end
$var wire 64 5 setpixel_cmd [63:0] $end
$var wire 16 6 rgb [15:0] $end
$var reg 2 7 clk_div [-1:0] $end
$var reg 8 8 data [7:0] $end
$var reg 1 , ready $end
$var reg 6 9 rom_addr [5:0] $end
$var reg 7 : setpixel_cmd_pos [6:0] $end
$var reg 5 ; shift_cnt [4:0] $end
$var reg 8 < shift_reg [7:0] $end
$var reg 1 = spi_clk $end
$var reg 1 / spi_cs $end
$var reg 1 . spi_dc $end
$var reg 3 > state [2:0] $end
$var reg 2 ? strobe_r [1:0] $end
$var reg 1 ( valid $end
$scope begin oled_initial $end
$upscope $end
$upscope $end
$scope module ssd_clk $end
$var wire 1 " clk $end
$var wire 1 @ hcycle $end
$var wire 1 A r $end
$var wire 1 % rst $end
$var wire 1 B vcycle $end
$var wire 1 C g $end
$var wire 1 D b $end
$var reg 9 E out_hcnt [8:0] $end
$var reg 9 F out_vcnt [8:0] $end
$var reg 16 G rgb [15:0] $end
$upscope $end
$upscope $end
$enddefinitions $end
#0
$dumpvars
b0xxx G
b0 F
b0 E
0D
0C
1B
1A
1@
b1 ?
b11 >
0=
b0 <
b1100 ;
b1000000 :
b0 9
b11111101 8
b0 7
b0xxx 6
b1010100000000010111110111010100000000001111110000000000000xxx 5
b0 4
b0 3
02
x1
x0
1/
1.
0-
0,
b0xxx +
0*
0)
0(
b0 '
b0 &
1%
1$
1#
1"
1!
$end
#5
0"
#10
1*
12
0@
0B
0%
b1010100000000010111110111010100000000001111110000000000000001 5
b1 +
b1 6
b1 G
1"
#15
0"
#20
b1010100000001010111110111010100000000001111110000000000000001 5
b1 '
b1 3
1-
b1 E
b100 >
b11111101 <
b111 ;
0.
0/
b1x ?
1"
#25
0"
#30
b1010100000010010111110111010100000000001111110000000000000001 5
b10 '
b10 3
b1 7
bx ?
b10 E
1"
#35
0"
#40
b1010100000011010111110111010100000000001111110000000000000001 5
b11 '
b11 3
b11 E
b10 7
1"
#45
0"
#50
b1010100000100010111110111010100000000001111110000000000000001 5
b100 '
b100 3
b11 7
b100 E
1"
#55
0"
#60
b1010100000101010111110111010100000000001111110000000000000001 5
b101 '
b101 3
b101 E
1)
1=
b0 7
1"
#65
0"
#70
b1010100000110010111110111010100000000001111110000000000000001 5
b110 '
b110 3
b1 7
b110 E
1"
#75
0"
#80
b1010100000111010111110111010100000000001111110000000000000001 5
b111 '
b111 3
b111 E
b10 7
1"
#85
0"
#90
b1010100001000010111110111010100000000001111110000000000000001 5
b1000 '
b1000 3
b11 7
b1000 E
1"
#95
0"
#100
b1010100001001010111110111010100000000001111110000000000000001 5
b1001 '
b1001 3
b1001 E
b11111010 <
b110 ;
0)
0=
b0 7
1"
#105
0"
#110
b1010100001010010111110111010100000000001111110000000000000001 5
b1010 '
b1010 3
b1 7
b1010 E
1"
#115
0"
#120
b1010100001011010111110111010100000000001111110000000000000001 5
b1011 '
b1011 3
b1011 E
b10 7
1"
#125
0"
#130
b1010100001100010111110111010100000000001111110000000000000001 5
b1100 '
b1100 3
b11 7
b1100 E
1"
#135
0"
#140
b1010100001101010111110111010100000000001111110000000000000001 5
b1101 '
b1101 3
b1101 E
1)
1=
b0 7
1"
#145
0"
#150
b1010100001110010111110111010100000000001111110000000000000001 5
b1110 '
b1110 3
b1 7
b1110 E
1"
#155
0"
#160
b1010100001111010111110111010100000000001111110000000000000001 5
b1111 '
b1111 3
b1111 E
b10 7
1"
#165
0"
#170
1C
b1010100010000010111110111010100000000001111110000000000000001 5
b10000 '
b10000 3
b11 7
b10000 E
1"
#175
0"
#180
b10001 '
b10001 3
b10001 E
b1010100010001010111110111010100000000001111110000000000000011 5
b11 +
b11 6
b11 G
b11110100 <
b101 ;
0)
0=
b0 7
1"
#185
0"
#190
b1010100010010010111110111010100000000001111110000000000000011 5
b10010 '
b10010 3
b1 7
b10010 E
1"
#195
0"
#200
b1010100010011010111110111010100000000001111110000000000000011 5
b10011 '
b10011 3
b10011 E
b10 7
1"
#205
0"
#210
b1010100010100010111110111010100000000001111110000000000000011 5
b10100 '
b10100 3
b11 7
b10100 E
1"
#215
0"
#220
b1010100010101010111110111010100000000001111110000000000000011 5
b10101 '
b10101 3
b10101 E
1)
1=
b0 7
1"
#225
0"
#230
b1010100010110010111110111010100000000001111110000000000000011 5
b10110 '
b10110 3
b1 7
b10110 E
1"
#235
0"
#240
b1010100010111010111110111010100000000001111110000000000000011 5
b10111 '
b10111 3
b10111 E
b10 7
1"
#245
0"
#250
b1010100011000010111110111010100000000001111110000000000000011 5
b11000 '
b11000 3
b11 7
b11000 E
1"
#255
0"
#260
b1010100011001010111110111010100000000001111110000000000000011 5
b11001 '
b11001 3
b11001 E
b11101000 <
b100 ;
0)
0=
b0 7
1"
#265
0"
#270
b1010100011010010111110111010100000000001111110000000000000011 5
b11010 '
b11010 3
b1 7
b11010 E
1"
#275
0"
#280
b1010100011011010111110111010100000000001111110000000000000011 5
b11011 '
b11011 3
b11011 E
b10 7
1"
#285
0"
#290
b1010100011100010111110111010100000000001111110000000000000011 5
b11100 '
b11100 3
b11 7
b11100 E
1"
#295
0"
#300
b1010100011101010111110111010100000000001111110000000000000011 5
b11101 '
b11101 3
b11101 E
1)
1=
b0 7
1"
#305
0"
#310
b1010100011110010111110111010100000000001111110000000000000011 5
b11110 '
b11110 3
b1 7
b11110 E
1"
#315
0"
#320
b1010100011111010111110111010100000000001111110000000000000011 5
b11111 '
b11111 3
b11111 E
b10 7
1"
#325
0"
#330
0C
b1010100100000010111110111010100000000001111110000000000000011 5
b100000 '
b100000 3
b11 7
b100000 E
1"
#335
0"
#340
b100001 '
b100001 3
b100001 E
b1010100100001010111110111010100000000001111110000000000000001 5
b1 +
b1 6
b1 G
b11010000 <
b11 ;
0)
0=
b0 7
1"
#345
0"
#350
b1010100100010010111110111010100000000001111110000000000000001 5
b100010 '
b100010 3
b1 7
b100010 E
1"
#355
0"
#360
b1010100100011010111110111010100000000001111110000000000000001 5
b100011 '
b100011 3
b100011 E
b10 7
1"
#365
0"
#370
b1010100100100010111110111010100000000001111110000000000000001 5
b100100 '
b100100 3
b11 7
b100100 E
1"
#375
0"
#380
b1010100100101010111110111010100000000001111110000000000000001 5
b100101 '
b100101 3
b100101 E
1)
1=
b0 7
1"
#385
0"
#390
b1010100100110010111110111010100000000001111110000000000000001 5
b100110 '
b100110 3
b1 7
b100110 E
1"
#395
0"
#400
b1010100100111010111110111010100000000001111110000000000000001 5
b100111 '
b100111 3
b100111 E
b10 7
1"
#405
0"
#410
b1010100101000010111110111010100000000001111110000000000000001 5
b101000 '
b101000 3
b11 7
b101000 E
1"
#415
0"
#420
b1010100101001010111110111010100000000001111110000000000000001 5
b101001 '
b101001 3
b101001 E
b10100000 <
b10 ;
0)
0=
b0 7
1"
#425
0"
#430
b1010100101010010111110111010100000000001111110000000000000001 5
b101010 '
b101010 3
b1 7
b101010 E
1"
#435
0"
#440
b1010100101011010111110111010100000000001111110000000000000001 5
b101011 '
b101011 3
b101011 E
b10 7
1"
#445
0"
#450
b1010100101100010111110111010100000000001111110000000000000001 5
b101100 '
b101100 3
b11 7
b101100 E
1"
#455
0"
#460
b1010100101101010111110111010100000000001111110000000000000001 5
b101101 '
b101101 3
b101101 E
1)
1=
b0 7
1"
#465
0"
#470
b1010100101110010111110111010100000000001111110000000000000001 5
b101110 '
b101110 3
b1 7
b101110 E
1"
#475
0"
#480
b1010100101111010111110111010100000000001111110000000000000001 5
b101111 '
b101111 3
b101111 E
b10 7
1"
#485
0"
#490
1C
b1010100110000010111110111010100000000001111110000000000000001 5
b110000 '
b110000 3
b11 7
b110000 E
1"
#495
0"
#500
b110001 '
b110001 3
0-
b110001 E
b1010100110001010111110111010100000000001111110000000000000011 5
b11 +
b11 6
b11 G
b1000000 <
b1 ;
0)
0=
b0 7
1"
#505
0"
#510
b1010100110010010111110111010100000000001111110000000000000011 5
b110010 '
b110010 3
b1 7
b110010 E
1"
#515
0"
#520
b1010100110011010111110111010100000000001111110000000000000011 5
b110011 '
b110011 3
b110011 E
b10 7
1"
#525
0"
#530
b1010100110100010111110111010100000000001111110000000000000011 5
b110100 '
b110100 3
b11 7
b110100 E
1"
#535
0"
#540
b1010100110101010111110111010100000000001111110000000000000011 5
b110101 '
b110101 3
b110101 E
1)
1=
b0 7
1"
#545
0"
#550
b1010100110110010111110111010100000000001111110000000000000011 5
b110110 '
b110110 3
b1 7
b110110 E
1"
#555
0"
#560
b1010100110111010111110111010100000000001111110000000000000011 5
b110111 '
b110111 3
b110111 E
b10 7
1"
#565
0"
#570
b1010100111000010111110111010100000000001111110000000000000011 5
b111000 '
b111000 3
b11 7
b111000 E
1"
#575
0"
#580
b1010100111001010111110111010100000000001111110000000000000011 5
b111001 '
b111001 3
1-
b111001 E
b10000000 <
b0 ;
0)
0=
b0 7
1"
#585
0"
#590
b1010100111010010111110111010100000000001111110000000000000011 5
b111010 '
b111010 3
b1 7
b111010 E
1"
#595
0"
#600
b1010100111011010111110111010100000000001111110000000000000011 5
b111011 '
b111011 3
b111011 E
b10 7
1"
#605
0"
#610
b1010100111100010111110111010100000000001111110000000000000011 5
b111100 '
b111100 3
b11 7
b111100 E
1"
#615
0"
#620
b1010100111101010111110111010100000000001111110000000000000011 5
b111101 '
b111101 3
b111101 E
1)
1=
b0 7
1"
#625
0"
#630
b1010100111110010111110111010100000000001111110000000000000011 5
b111110 '
b111110 3
b1 7
b111110 E
1"
#635
0"
#640
1@
b1010100111111010111110111010100000000001111110000000000000011 5
b111111 '
b111111 3
b111111 E
b10 7
1"
#645
0"
#650
b1 &
b1 4
0@
0C
b1010100000000010111110111010100000001001111110000000000000011 5
b0 '
b0 3
b11 7
b1 F
b0 E
1"
#655
0"
#660
0A
b1 '
b1 3
b10010 8
0-
b1 E
b1010100000001010111110111010100000001001111110000000000000001 5
b1 +
b1 6
b1 G
b11 >
b1 9
b0 <
b11111 ;
0)
0=
b0 7
1"
#665
0"
#670
b10 '
b10 3
b100 >
b10010 <
b111 ;
b10 E
b1010100000010010111110111010100000001001111110000000000000000 5
b0 +
b0 6
b0 G
1"
#675
0"
#680
b1010100000011010111110111010100000001001111110000000000000000 5
b11 '
b11 3
b11 E
b1 7
1"
#685
0"
#690
b1010100000100010111110111010100000001001111110000000000000000 5
b100 '
b100 3
b10 7
b100 E
1"
#695
0"
#700
b1010100000101010111110111010100000001001111110000000000000000 5
b101 '
b101 3
b101 E
b11 7
1"
#705
0"
#710
b1010100000110010111110111010100000001001111110000000000000000 5
b110 '
b110 3
1)
1=
b0 7
b110 E
1"
#715
0"
#720
b1010100000111010111110111010100000001001111110000000000000000 5
b111 '
b111 3
b111 E
b1 7
1"
#725
0"
#730
1A
b1010100001000010111110111010100000001001111110000000000000000 5
b1000 '
b1000 3
b10 7
b1000 E
1"
#735
0"
#740
0A
b1001 '
b1001 3
b1001 E
b1010100001001010111110111010100000001001111110000000000000001 5
b1 +
b1 6
b1 G
b11 7
1"
#745
0"
#750
b1010 '
b1010 3
b100100 <
b110 ;
0)
0=
b0 7
b1010 E
b1010100001010010111110111010100000001001111110000000000000000 5
b0 +
b0 6
b0 G
1"
#755
0"
#760
b1010100001011010111110111010100000001001111110000000000000000 5
b1011 '
b1011 3
b1011 E
b1 7
1"
#765
0"
#770
b1010100001100010111110111010100000001001111110000000000000000 5
b1100 '
b1100 3
b10 7
b1100 E
1"
#775
0"
#780
b1010100001101010111110111010100000001001111110000000000000000 5
b1101 '
b1101 3
b1101 E
b11 7
1"
#785
0"
#790
b1010100001110010111110111010100000001001111110000000000000000 5
b1110 '
b1110 3
1)
1=
b0 7
b1110 E
1"
#795
0"
#800
b1010100001111010111110111010100000001001111110000000000000000 5
b1111 '
b1111 3
b1111 E
b1 7
1"
#805
0"
#810
1A
1C
b1010100010000010111110111010100000001001111110000000000000000 5
b10000 '
b10000 3
b10 7
b10000 E
1"
#815
0"
#820
0A
b10001 '
b10001 3
b10001 E
b1010100010001010111110111010100000001001111110000000000000011 5
b11 +
b11 6
b11 G
b11 7
1"
#825
0"
#830
b10010 '
b10010 3
b1001000 <
b101 ;
0)
0=
b0 7
b10010 E
b1010100010010010111110111010100000001001111110000000000000010 5
b10 +
b10 6
b10 G
1"
#835
0"
#840
b1010100010011010111110111010100000001001111110000000000000010 5
b10011 '
b10011 3
b10011 E
b1 7
1"
#845
0"
#850
b1010100010100010111110111010100000001001111110000000000000010 5
b10100 '
b10100 3
b10 7
b10100 E
1"
#855
0"
#860
b1010100010101010111110111010100000001001111110000000000000010 5
b10101 '
b10101 3
b10101 E
b11 7
1"
#865
0"
#870
b1010100010110010111110111010100000001001111110000000000000010 5
b10110 '
b10110 3
1)
1=
b0 7
b10110 E
1"
#875
0"
#880
b1010100010111010111110111010100000001001111110000000000000010 5
b10111 '
b10111 3
b10111 E
b1 7
1"
#885
0"
#890
1A
b1010100011000010111110111010100000001001111110000000000000010 5
b11000 '
b11000 3
b10 7
b11000 E
1"
#895
0"
#900
0A
b11001 '
b11001 3
b11001 E
b1010100011001010111110111010100000001001111110000000000000011 5
b11 +
b11 6
b11 G
b11 7
1"
#905
0"
#910
1-
b11010 '
b11010 3
b10010000 <
b100 ;
0)
0=
b0 7
b11010 E
b1010100011010010111110111010100000001001111110000000000000010 5
b10 +
b10 6
b10 G
1"
#915
0"
#920
b1010100011011010111110111010100000001001111110000000000000010 5
b11011 '
b11011 3
b11011 E
b1 7
1"
#925
0"
#930
b1010100011100010111110111010100000001001111110000000000000010 5
b11100 '
b11100 3
b10 7
b11100 E
1"
#935
0"
#940
b1010100011101010111110111010100000001001111110000000000000010 5
b11101 '
b11101 3
b11101 E
b11 7
1"
#945
0"
#950
b1010100011110010111110111010100000001001111110000000000000010 5
b11110 '
b11110 3
1)
1=
b0 7
b11110 E
1"
#955
0"
#960
b1010100011111010111110111010100000001001111110000000000000010 5
b11111 '
b11111 3
b11111 E
b1 7
1"
#965
0"
#970
1A
0C
b1010100100000010111110111010100000001001111110000000000000010 5
b100000 '
b100000 3
b10 7
b100000 E
1"
#975
0"
#980
0A
b100001 '
b100001 3
b100001 E
b1010100100001010111110111010100000001001111110000000000000001 5
b1 +
b1 6
b1 G
b11 7
1"
#985
0"
#990
0-
b100010 '
b100010 3
b100000 <
b11 ;
0)
0=
b0 7
b100010 E
b1010100100010010111110111010100000001001111110000000000000000 5
b0 +
b0 6
b0 G
1"
#995
0"
#1000
b1010100100011010111110111010100000001001111110000000000000000 5
b100011 '
b100011 3
b100011 E
b1 7
1"
#1005
0"
#1010
b1010100100100010111110111010100000001001111110000000000000000 5
b100100 '
b100100 3
b10 7
b100100 E
1"
#1015
0"
#1020
b1010100100101010111110111010100000001001111110000000000000000 5
b100101 '
b100101 3
b100101 E
b11 7
1"
#1025
0"
#1030
b1010100100110010111110111010100000001001111110000000000000000 5
b100110 '
b100110 3
1)
1=
b0 7
b100110 E
1"
#1035
0"
#1040
b1010100100111010111110111010100000001001111110000000000000000 5
b100111 '
b100111 3
b100111 E
b1 7
1"
#1045
0"
#1050
1A
b1010100101000010111110111010100000001001111110000000000000000 5
b101000 '
b101000 3
b10 7
b101000 E
1"
#1055
0"
#1060
0A
b101001 '
b101001 3
b101001 E
b1010100101001010111110111010100000001001111110000000000000001 5
b1 +
b1 6
b1 G
b11 7
1"
#1065
0"
#1070
b101010 '
b101010 3
b1000000 <
b10 ;
0)
0=
b0 7
b101010 E
b1010100101010010111110111010100000001001111110000000000000000 5
b0 +
b0 6
b0 G
1"
#1075
0"
#1080
b1010100101011010111110111010100000001001111110000000000000000 5
b101011 '
b101011 3
b101011 E
b1 7
1"
#1085
0"
#1090
b1010100101100010111110111010100000001001111110000000000000000 5
b101100 '
b101100 3
b10 7
b101100 E
1"
#1095
0"
#1100
b1010100101101010111110111010100000001001111110000000000000000 5
b101101 '
b101101 3
b101101 E
b11 7
1"
#1105
0"
#1110
b1010100101110010111110111010100000001001111110000000000000000 5
b101110 '
b101110 3
1)
1=
b0 7
b101110 E
1"
#1115
0"
#1120
b1010100101111010111110111010100000001001111110000000000000000 5
b101111 '
b101111 3
b101111 E
b1 7
1"
#1125
0"
#1130
1A
1C
b1010100110000010111110111010100000001001111110000000000000000 5
b110000 '
b110000 3
b10 7
b110000 E
1"
#1135
0"
#1140
0A
b110001 '
b110001 3
b110001 E
b1010100110001010111110111010100000001001111110000000000000011 5
b11 +
b11 6
b11 G
b11 7
1"
#1145
0"
#1150
1-
b110010 '
b110010 3
b10000000 <
b1 ;
0)
0=
b0 7
b110010 E
b1010100110010010111110111010100000001001111110000000000000010 5
b10 +
b10 6
b10 G
1"
#1155
0"
#1160
b1010100110011010111110111010100000001001111110000000000000010 5
b110011 '
b110011 3
b110011 E
b1 7
1"
#1165
0"
#1170
b1010100110100010111110111010100000001001111110000000000000010 5
b110100 '
b110100 3
b10 7
b110100 E
1"
#1175
0"
#1180
b1010100110101010111110111010100000001001111110000000000000010 5
b110101 '
b110101 3
b110101 E
b11 7
1"
#1185
0"
#1190
b1010100110110010111110111010100000001001111110000000000000010 5
b110110 '
b110110 3
1)
1=
b0 7
b110110 E
1"
#1195
0"
#1200
b1010100110111010111110111010100000001001111110000000000000010 5
b110111 '
b110111 3
b110111 E
b1 7
1"
#1205
0"
#1210
1A
b1010100111000010111110111010100000001001111110000000000000010 5
b111000 '
b111000 3
b10 7
b111000 E
1"
#1215
0"
#1220
0A
b111001 '
b111001 3
b111001 E
b1010100111001010111110111010100000001001111110000000000000011 5
b11 +
b11 6
b11 G
b11 7
1"
#1225
0"
#1230
0-
b111010 '
b111010 3
b0 <
b0 ;
0)
0=
b0 7
b111010 E
b1010100111010010111110111010100000001001111110000000000000010 5
b10 +
b10 6
b10 G
1"
#1235
0"
#1240
b1010100111011010111110111010100000001001111110000000000000010 5
b111011 '
b111011 3
b111011 E
b1 7
1"
#1245
0"
#1250
b1010100111100010111110111010100000001001111110000000000000010 5
b111100 '
b111100 3
b10 7
b111100 E
1"
#1255
0"
#1260
b1010100111101010111110111010100000001001111110000000000000010 5
b111101 '
b111101 3
b111101 E
b11 7
1"
#1265
0"
#1270
b1010100111110010111110111010100000001001111110000000000000010 5
b111110 '
b111110 3
1)
1=
b0 7
b111110 E
1"
#1275
0"
#1280
1@
b1010100111111010111110111010100000001001111110000000000000010 5
b111111 '
b111111 3
b111111 E
b1 7
1"
#1285
0"
#1290
1A
b10 &
b10 4
0@
0C
b1010100000000010111110111010100000010001111110000000000000010 5
b0 '
b0 3
b10 7
b10 F
b0 E
1"
#1295
0"
#1300
0A
b1 '
b1 3
b1 E
b1010100000001010111110111010100000010001111110000000000000001 5
b1 +
b1 6
b1 G
b11 7
1"
#1305
0"
#1310
b10101110 8
b10 '
b10 3
b11 >
b10 9
b11111 ;
0)
0=
b0 7
b10 E
b1010100000010010111110111010100000010001111110000000000000000 5
b0 +
b0 6
b0 G
1"
#1315
0"
#1320
b1010100000011010111110111010100000010001111110000000000000000 5
b11 '
b11 3
1-
b11 E
b100 >
b10101110 <
b111 ;
1"
#1325
0"
#1330
b1010100000100010111110111010100000010001111110000000000000000 5
b100 '
b100 3
b1 7
b100 E
1"
#1335
0"
#1340
b1010100000101010111110111010100000010001111110000000000000000 5
b101 '
b101 3
b101 E
b10 7
1"
#1345
0"
#1350
b1010100000110010111110111010100000010001111110000000000000000 5
b110 '
b110 3
b11 7
b110 E
1"
#1355
0"
#1360
b1010100000111010111110111010100000010001111110000000000000000 5
b111 '
b111 3
b111 E
1)
1=
b0 7
1"
#1365
0"
#1370
1A
b1010100001000010111110111010100000010001111110000000000000000 5
b1000 '
b1000 3
b1 7
b1000 E
1"
#1375
0"
#1380
0A
b1001 '
b1001 3
b1001 E
b1010100001001010111110111010100000010001111110000000000000001 5
b1 +
b1 6
b1 G
b10 7
1"
#1385
0"
#1390
b1010 '
b1010 3
b11 7
b1010 E
b1010100001010010111110111010100000010001111110000000000000000 5
b0 +
b0 6
b0 G
1"
#1395
0"
#1400
b1010100001011010111110111010100000010001111110000000000000000 5
b1011 '
b1011 3
0-
b1011 E
b1011100 <
b110 ;
0)
0=
b0 7
1"
#1405
0"
#1410
b1010100001100010111110111010100000010001111110000000000000000 5
b1100 '
b1100 3
b1 7
b1100 E
1"
#1415
0"
#1420
b1010100001101010111110111010100000010001111110000000000000000 5
b1101 '
b1101 3
b1101 E
b10 7
1"
#1425
0"
#1430
b1010100001110010111110111010100000010001111110000000000000000 5
b1110 '
b1110 3
b11 7
b1110 E
1"
#1435
0"
#1440
b1010100001111010111110111010100000010001111110000000000000000 5
b1111 '
b1111 3
b1111 E
1)
1=
b0 7
1"
#1445
0"
#1450
1A
1C
b1010100010000010111110111010100000010001111110000000000000000 5
b10000 '
b10000 3
b1 7
b10000 E
1"
#1455
0"
#1460
0A
b10001 '
b10001 3
b10001 E
b1010100010001010111110111010100000010001111110000000000000011 5
b11 +
b11 6
b11 G
b10 7
1"
#1465
0"
#1470
b10010 '
b10010 3
b11 7
b10010 E
b1010100010010010111110111010100000010001111110000000000000010 5
b10 +
b10 6
b10 G
1"
#1475
0"
#1480
b1010100010011010111110111010100000010001111110000000000000010 5
b10011 '
b10011 3
1-
b10011 E
b10111000 <
b101 ;
0)
0=
b0 7
1"
#1485
0"
#1490
b1010100010100010111110111010100000010001111110000000000000010 5
b10100 '
b10100 3
b1 7
b10100 E
1"
#1495
0"
#1500
b1010100010101010111110111010100000010001111110000000000000010 5
b10101 '
b10101 3
b10101 E
b10 7
1"
#1505
0"
#1510
b1010100010110010111110111010100000010001111110000000000000010 5
b10110 '
b10110 3
b11 7
b10110 E
1"
#1515
0"
#1520
b1010100010111010111110111010100000010001111110000000000000010 5
b10111 '
b10111 3
b10111 E
1)
1=
b0 7
1"
#1525
0"
#1530
1A
b1010100011000010111110111010100000010001111110000000000000010 5
b11000 '
b11000 3
b1 7
b11000 E
1"
#1535
0"
#1540
0A
b11001 '
b11001 3
b11001 E
b1010100011001010111110111010100000010001111110000000000000011 5
b11 +
b11 6
b11 G
b10 7
1"
#1545
0"
#1550
b11010 '
b11010 3
b11 7
b11010 E
b1010100011010010111110111010100000010001111110000000000000010 5
b10 +
b10 6
b10 G
1"
#1555
0"
#1560
b1010100011011010111110111010100000010001111110000000000000010 5
b11011 '
b11011 3
0-
b11011 E
b1110000 <
b100 ;
0)
0=
b0 7
1"
#1565
0"
#1570
b1010100011100010111110111010100000010001111110000000000000010 5
b11100 '
b11100 3
b1 7
b11100 E
1"
#1575
0"
#1580
b1010100011101010111110111010100000010001111110000000000000010 5
b11101 '
b11101 3
b11101 E
b10 7
1"
#1585
0"
#1590
b1010100011110010111110111010100000010001111110000000000000010 5
b11110 '
b11110 3
b11 7
b11110 E
1"
#1595
0"
#1600
b1010100011111010111110111010100000010001111110000000000000010 5
b11111 '
b11111 3
b11111 E
1)
1=
b0 7
1"
#1605
0"
#1610
1A
0C
b1010100100000010111110111010100000010001111110000000000000010 5
b100000 '
b100000 3
b1 7
b100000 E
1"
#1615
0"
#1620
0A
b100001 '
b100001 3
b100001 E
b1010100100001010111110111010100000010001111110000000000000001 5
b1 +
b1 6
b1 G
b10 7
1"
#1625
0"
#1630
b100010 '
b100010 3
b11 7
b100010 E
b1010100100010010111110111010100000010001111110000000000000000 5
b0 +
b0 6
b0 G
1"
#1635
0"
#1640
b1010100100011010111110111010100000010001111110000000000000000 5
b100011 '
b100011 3
1-
b100011 E
b11100000 <
b11 ;
0)
0=
b0 7
1"
#1645
0"
#1650
b1010100100100010111110111010100000010001111110000000000000000 5
b100100 '
b100100 3
b1 7
b100100 E
1"
#1655
0"
#1660
b1010100100101010111110111010100000010001111110000000000000000 5
b100101 '
b100101 3
b100101 E
b10 7
1"
#1665
0"
#1670
b1010100100110010111110111010100000010001111110000000000000000 5
b100110 '
b100110 3
b11 7
b100110 E
1"
#1675
0"
#1680
b1010100100111010111110111010100000010001111110000000000000000 5
b100111 '
b100111 3
b100111 E
1)
1=
b0 7
1"
#1685
0"
#1690
1A
b1010100101000010111110111010100000010001111110000000000000000 5
b101000 '
b101000 3
b1 7
b101000 E
1"
#1695
0"
#1700
0A
b101001 '
b101001 3
b101001 E
b1010100101001010111110111010100000010001111110000000000000001 5
b1 +
b1 6
b1 G
b10 7
1"
#1705
0"
#1710
b101010 '
b101010 3
b11 7
b101010 E
b1010100101010010111110111010100000010001111110000000000000000 5
b0 +
b0 6
b0 G
1"
#1715
0"
#1720
b1010100101011010111110111010100000010001111110000000000000000 5
b101011 '
b101011 3
b101011 E
b11000000 <
b10 ;
0)
0=
b0 7
1"
#1725
0"
#1730
b1010100101100010111110111010100000010001111110000000000000000 5
b101100 '
b101100 3
b1 7
b101100 E
1"
#1735
0"
#1740
b1010100101101010111110111010100000010001111110000000000000000 5
b101101 '
b101101 3
b101101 E
b10 7
1"
#1745
0"
#1750
b1010100101110010111110111010100000010001111110000000000000000 5
b101110 '
b101110 3
b11 7
b101110 E
1"
#1755
0"
#1760
b1010100101111010111110111010100000010001111110000000000000000 5
b101111 '
b101111 3
b101111 E
1)
1=
b0 7
1"
#1765
0"
#1770
1A
1C
b1010100110000010111110111010100000010001111110000000000000000 5
b110000 '
b110000 3
b1 7
b110000 E
1"
#1775
0"
#1780
0A
b110001 '
b110001 3
b110001 E
b1010100110001010111110111010100000010001111110000000000000011 5
b11 +
b11 6
b11 G
b10 7
1"
#1785
0"
#1790
b110010 '
b110010 3
b11 7
b110010 E
b1010100110010010111110111010100000010001111110000000000000010 5
b10 +
b10 6
b10 G
1"
#1795
0"
#1800
b1010100110011010111110111010100000010001111110000000000000010 5
b110011 '
b110011 3
b110011 E
b10000000 <
b1 ;
0)
0=
b0 7
1"
#1805
0"
#1810
b1010100110100010111110111010100000010001111110000000000000010 5
b110100 '
b110100 3
b1 7
b110100 E
1"
#1815
0"
#1820
b1010100110101010111110111010100000010001111110000000000000010 5
b110101 '
b110101 3
b110101 E
b10 7
1"
#1825
0"
#1830
b1010100110110010111110111010100000010001111110000000000000010 5
b110110 '
b110110 3
b11 7
b110110 E
1"
#1835
0"
#1840
b1010100110111010111110111010100000010001111110000000000000010 5
b110111 '
b110111 3
b110111 E
1)
1=
b0 7
1"
#1845
0"
#1850
1A
b1010100111000010111110111010100000010001111110000000000000010 5
b111000 '
b111000 3
b1 7
b111000 E
1"
#1855
0"
#1860
0A
b111001 '
b111001 3
b111001 E
b1010100111001010111110111010100000010001111110000000000000011 5
b11 +
b11 6
b11 G
b10 7
1"
#1865
0"
#1870
b111010 '
b111010 3
b11 7
b111010 E
b1010100111010010111110111010100000010001111110000000000000010 5
b10 +
b10 6
b10 G
1"
#1875
0"
#1880
b1010100111011010111110111010100000010001111110000000000000010 5
b111011 '
b111011 3
0-
b111011 E
b0 <
b0 ;
0)
0=
b0 7
1"
#1885
0"
#1890
b1010100111100010111110111010100000010001111110000000000000010 5
b111100 '
b111100 3
b1 7
b111100 E
1"
#1895
0"
#1900
b1010100111101010111110111010100000010001111110000000000000010 5
b111101 '
b111101 3
b111101 E
b10 7
1"
#1905
0"
#1910
b1010100111110010111110111010100000010001111110000000000000010 5
b111110 '
b111110 3
b11 7
b111110 E
1"
#1915
0"
#1920
1@
b1010100111111010111110111010100000010001111110000000000000010 5
b111111 '
b111111 3
b111111 E
1)
1=
b0 7
1"
#1925
0"
#1930
1A
b11 &
b11 4
0@
0C
b1010100000000010111110111010100000011001111110000000000000010 5
b0 '
b0 3
b1 7
b11 F
b0 E
1"
#1935
0"
#1940
0A
b1 '
b1 3
b1 E
b1010100000001010111110111010100000011001111110000000000000001 5
b1 +
b1 6
b1 G
b10 7
1"
#1945
0"
#1950
b10 '
b10 3
b11 7
b10 E
b1010100000010010111110111010100000011001111110000000000000000 5
b0 +
b0 6
b0 G
1"
#1955
0"
#1960
b1010100000011010111110111010100000011001111110000000000000000 5
b11 '
b11 3
b10100000 8
b11 E
b11 >
b11 9
b11111 ;
0)
0=
b0 7
1"
#1965
0"
#1970
1-
b1010100000100010111110111010100000011001111110000000000000000 5
b100 '
b100 3
b100 >
b10100000 <
b111 ;
b100 E
1"
#1975
0"
#1980
b1010100000101010111110111010100000011001111110000000000000000 5
b101 '
b101 3
b101 E
b1 7
1"
#1985
0"
#1990
b1010100000110010111110111010100000011001111110000000000000000 5
b110 '
b110 3
b10 7
b110 E
1"
#1995
0"
#2000
b1010100000111010111110111010100000011001111110000000000000000 5
b111 '
b111 3
b111 E
b11 7
1"
#2005
0"
#2010
1A
b1010100001000010111110111010100000011001111110000000000000000 5
b1000 '
b1000 3
1)
1=
b0 7
b1000 E
1"
#2015
0"
